<svg xmlns="http://www.w3.org/2000/svg" xmlns:xlink="http://www.w3.org/1999/xlink" width="64" height="64" viewBox="0 0 64 64">
  <defs>
    <clipPath id="favicon-clip-path">
      <circle cx="32" cy="32" r="32"/>
    </clipPath>
  </defs>
  <circle fill="#0AB" cx="32" cy="32" r="32"/>
  <g fill="none" stroke="#FFF" stroke-linecap="round" stroke-miterlimit="10" stroke-width="4px">
      <line x1="16" y1="24" x2="16" y2="40"/>
      <line x1="16" y1="24" x2="32" y2="16"/>
      <line x1="48" y1="24" x2="32" y2="16"/>
      <line x1="48" y1="24" x2="48" y2="40"/>
      <line x1="16" y1="40" x2="32" y2="48"/>
      <line x1="48" y1="40" x2="32" y2="48"/>
    <g clip-path="url(#favicon-clip-path)">
        <line x1="32" y1="32" x2="64" y2="16"/>
        <line y1="16" x2="32" y2="32"/>
        <line x1="32" y1="48" x2="32" y2="64"/>
    </g>
  </g>
</svg>
