<svg xmlns="http://www.w3.org/2000/svg" width="24" height="24" viewBox="0 0 24 24">
    <defs>
        <clipPath id="cut">
            <circle cx="12" cy="12" r="6"/>
        </clipPath>
    </defs>

    <g clip-path="url(#cut)" stroke-width="1" stroke="#ABC" stroke-linecap="square" fill="#569">
        <line x1="4" y1="0" x2="16" y2="12" />
        <line x1="4" y1="24" x2="16" y2="12"/>
    </g>
</svg>