<svg version="1.1" xmlns="http://www.w3.org/2000/svg"
     viewBox="0 0 32 32"
     width="32"
     height="32">
    <g stroke-width="1.5" stroke="#FFF" stroke-linecap="round" fill="none">
        <defs>
            <clipPath id="cut">
                <rect y="8" width="100%" height="16px"/>
            </clipPath>
        </defs>
        <circle cx="16" cy="12" r="4"/>
        <circle clip-path="url(#cut)" cx="16" cy="24" r="6"/>
    </g>
</svg>